Rental - Car Type Api: October 23, 2017, 11:19 am
Response: Array
(
    [0] => Array
        (
            [car_type_id] => 2
            [car_type_name] => TAXI
            [car_type_image] => uploads/car/editcar_2.png
            [city_id] => 56
            [base_fare] => 100 Per 4 Miles
            [ride_mode] => 1
            [currency_iso_code] => AUD
            [currency_unicode] => 0024
        )

    [1] => Array
        (
            [car_type_id] => 3
            [car_type_name] => TAXI PREMIUM
            [car_type_image] => uploads/car/editcar_3.png
            [city_id] => 56
            [base_fare] => 100 Per 4 Miles
            [ride_mode] => 1
            [currency_iso_code] => AUD
            [currency_unicode] => 0024
        )

    [2] => Array
        (
            [car_type_id] => 4
            [car_type_name] => ESPECIAL
            [car_type_image] => uploads/car/editcar_4.png
            [city_id] => 56
            [base_fare] => 178 Per 4 Miles
            [ride_mode] => 1
            [currency_iso_code] => AUD
            [currency_unicode] => 0024
        )

)

city_name: Gurugram
latitude: 28.4121304278533
longitude: 77.0432940886273
-------------------------
Rental - Car Type Api: October 23, 2017, 11:21 am
Response: Array
(
    [0] => Array
        (
            [car_type_id] => 2
            [car_type_name] => TAXI
            [car_type_image] => uploads/car/editcar_2.png
            [city_id] => 56
            [base_fare] => 100 Per 4 Miles
            [ride_mode] => 1
            [currency_iso_code] => AUD
            [currency_unicode] => 0024
        )

    [1] => Array
        (
            [car_type_id] => 3
            [car_type_name] => TAXI PREMIUM
            [car_type_image] => uploads/car/editcar_3.png
            [city_id] => 56
            [base_fare] => 100 Per 4 Miles
            [ride_mode] => 1
            [currency_iso_code] => AUD
            [currency_unicode] => 0024
        )

    [2] => Array
        (
            [car_type_id] => 4
            [car_type_name] => ESPECIAL
            [car_type_image] => uploads/car/editcar_4.png
            [city_id] => 56
            [base_fare] => 178 Per 4 Miles
            [ride_mode] => 1
            [currency_iso_code] => AUD
            [currency_unicode] => 0024
        )

)

city_name: Gurugram
latitude: 28.412095648263
longitude: 77.0433336217674
-------------------------
Rental - Car Type Api: October 23, 2017, 11:50 am
Response: Array
(
    [0] => Array
        (
            [car_type_id] => 2
            [car_type_name] => TAXI
            [car_type_image] => uploads/car/editcar_2.png
            [city_id] => 56
            [base_fare] => 100 Per 4 Miles
            [ride_mode] => 1
            [currency_iso_code] => AUD
            [currency_unicode] => 0024
        )

    [1] => Array
        (
            [car_type_id] => 3
            [car_type_name] => TAXI PREMIUM
            [car_type_image] => uploads/car/editcar_3.png
            [city_id] => 56
            [base_fare] => 100 Per 4 Miles
            [ride_mode] => 1
            [currency_iso_code] => AUD
            [currency_unicode] => 0024
        )

    [2] => Array
        (
            [car_type_id] => 4
            [car_type_name] => ESPECIAL
            [car_type_image] => uploads/car/editcar_4.png
            [city_id] => 56
            [base_fare] => 178 Per 4 Miles
            [ride_mode] => 1
            [currency_iso_code] => AUD
            [currency_unicode] => 0024
        )

)

city_name: Gurugram
latitude: 28.412091281117
longitude: 77.0432708999173
-------------------------
Rental - Car Type Api: October 23, 2017, 12:00 pm
Response: Array
(
    [0] => Array
        (
            [car_type_id] => 2
            [car_type_name] => TAXI
            [car_type_image] => uploads/car/editcar_2.png
            [city_id] => 56
            [base_fare] => 100 Per 4 Miles
            [ride_mode] => 1
            [currency_iso_code] => AUD
            [currency_unicode] => 0024
        )

    [1] => Array
        (
            [car_type_id] => 3
            [car_type_name] => TAXI PREMIUM
            [car_type_image] => uploads/car/editcar_3.png
            [city_id] => 56
            [base_fare] => 100 Per 4 Miles
            [ride_mode] => 1
            [currency_iso_code] => AUD
            [currency_unicode] => 0024
        )

    [2] => Array
        (
            [car_type_id] => 4
            [car_type_name] => ESPECIAL
            [car_type_image] => uploads/car/editcar_4.png
            [city_id] => 56
            [base_fare] => 178 Per 4 Miles
            [ride_mode] => 1
            [currency_iso_code] => AUD
            [currency_unicode] => 0024
        )

)

city_name: Gurugram
latitude: 28.4121903648058
longitude: 77.043245800043
-------------------------
Rental - Car Type Api: October 23, 2017, 12:14 pm
Response: Array
(
    [0] => Array
        (
            [car_type_id] => 2
            [car_type_name] => TAXI
            [car_type_image] => uploads/car/editcar_2.png
            [city_id] => 56
            [base_fare] => 100 Per 4 Miles
            [ride_mode] => 1
            [currency_iso_code] => AUD
            [currency_unicode] => 0024
        )

    [1] => Array
        (
            [car_type_id] => 3
            [car_type_name] => TAXI PREMIUM
            [car_type_image] => uploads/car/editcar_3.png
            [city_id] => 56
            [base_fare] => 100 Per 4 Miles
            [ride_mode] => 1
            [currency_iso_code] => AUD
            [currency_unicode] => 0024
        )

    [2] => Array
        (
            [car_type_id] => 4
            [car_type_name] => ESPECIAL
            [car_type_image] => uploads/car/editcar_4.png
            [city_id] => 56
            [base_fare] => 178 Per 4 Miles
            [ride_mode] => 1
            [currency_iso_code] => AUD
            [currency_unicode] => 0024
        )

)

city_name: Gurugram
latitude: 28.4121278794186
longitude: 77.0432807906907
-------------------------
Rental - Car Type Api: October 23, 2017, 12:16 pm
Response: Array
(
    [0] => Array
        (
            [car_type_id] => 2
            [car_type_name] => TAXI
            [car_type_image] => uploads/car/editcar_2.png
            [city_id] => 56
            [base_fare] => 100 Per 4 Miles
            [ride_mode] => 1
            [currency_iso_code] => AUD
            [currency_unicode] => 0024
        )

    [1] => Array
        (
            [car_type_id] => 3
            [car_type_name] => TAXI PREMIUM
            [car_type_image] => uploads/car/editcar_3.png
            [city_id] => 56
            [base_fare] => 100 Per 4 Miles
            [ride_mode] => 1
            [currency_iso_code] => AUD
            [currency_unicode] => 0024
        )

    [2] => Array
        (
            [car_type_id] => 4
            [car_type_name] => ESPECIAL
            [car_type_image] => uploads/car/editcar_4.png
            [city_id] => 56
            [base_fare] => 178 Per 4 Miles
            [ride_mode] => 1
            [currency_iso_code] => AUD
            [currency_unicode] => 0024
        )

)

city_name: Gurugram
latitude: 28.4121489990767
longitude: 77.043263884333
-------------------------
Rental - Car Type Api: October 23, 2017, 12:35 pm
Response: Array
(
    [0] => Array
        (
            [car_type_id] => 2
            [car_type_name] => TAXI
            [car_type_image] => uploads/car/editcar_2.png
            [city_id] => 56
            [base_fare] => 100 Per 4 Miles
            [ride_mode] => 1
            [currency_iso_code] => AUD
            [currency_unicode] => 0024
        )

    [1] => Array
        (
            [car_type_id] => 3
            [car_type_name] => TAXI PREMIUM
            [car_type_image] => uploads/car/editcar_3.png
            [city_id] => 56
            [base_fare] => 100 Per 4 Miles
            [ride_mode] => 1
            [currency_iso_code] => AUD
            [currency_unicode] => 0024
        )

    [2] => Array
        (
            [car_type_id] => 4
            [car_type_name] => ESPECIAL
            [car_type_image] => uploads/car/editcar_4.png
            [city_id] => 56
            [base_fare] => 178 Per 4 Miles
            [ride_mode] => 1
            [currency_iso_code] => AUD
            [currency_unicode] => 0024
        )

)

city_name: Gurugram
latitude: 28.41218811892447
longitude: 77.04321853816509
-------------------------
Rental - Car Type Api: October 23, 2017, 8:15 pm
Response: Array
(
    [0] => Array
        (
            [car_type_id] => 2
            [car_type_name] => SEDAN
            [car_type_image] => uploads/car/editcar_2.png
            [city_id] => 126
            [base_fare] => 80 Per 3 Km
            [ride_mode] => 1
            [currency_iso_code] => QAR
            [currency_unicode] => 0
        )

    [1] => Array
        (
            [car_type_id] => 3
            [car_type_name] => LUXURY
            [car_type_image] => uploads/car/editcar_3.png
            [city_id] => 126
            [base_fare] => 90 Per 3 Km
            [ride_mode] => 1
            [currency_iso_code] => QAR
            [currency_unicode] => 0
        )

)

city_name: Doha
latitude: 25.32589514957951
longitude: 51.52632247656584
-------------------------
Rental - Car Type Api: October 23, 2017, 8:17 pm
Response: Array
(
    [0] => Array
        (
            [car_type_id] => 2
            [car_type_name] => SEDAN
            [car_type_image] => uploads/car/editcar_2.png
            [city_id] => 126
            [base_fare] => 80 Per 3 Km
            [ride_mode] => 1
            [currency_iso_code] => QAR
            [currency_unicode] => 0
        )

    [1] => Array
        (
            [car_type_id] => 3
            [car_type_name] => LUXURY
            [car_type_image] => uploads/car/editcar_3.png
            [city_id] => 126
            [base_fare] => 90 Per 3 Km
            [ride_mode] => 1
            [currency_iso_code] => QAR
            [currency_unicode] => 0
        )

)

city_name: Doha
latitude: 25.325885148846364
longitude: 51.52635332196951
-------------------------
Rental - Car Type Api: October 23, 2017, 8:19 pm
Response: Array
(
    [0] => Array
        (
            [car_type_id] => 2
            [car_type_name] => SEDAN
            [car_type_image] => uploads/car/editcar_2.png
            [city_id] => 126
            [base_fare] => 80 Per 3 Km
            [ride_mode] => 1
            [currency_iso_code] => QAR
            [currency_unicode] => 0
        )

    [1] => Array
        (
            [car_type_id] => 3
            [car_type_name] => LUXURY
            [car_type_image] => uploads/car/editcar_3.png
            [city_id] => 126
            [base_fare] => 90 Per 3 Km
            [ride_mode] => 1
            [currency_iso_code] => QAR
            [currency_unicode] => 0
        )

)

city_name: Doha
latitude: 25.325898483157037
longitude: 51.526332534849644
-------------------------
Rental - Car Type Api: October 23, 2017, 9:39 pm
Response: Array
(
    [0] => Array
        (
            [car_type_id] => 2
            [car_type_name] => SEDAN
            [car_type_image] => uploads/car/editcar_2.png
            [city_id] => 126
            [base_fare] => 80 Per 3 Km
            [ride_mode] => 1
            [currency_iso_code] => QAR
            [currency_unicode] => 0
        )

    [1] => Array
        (
            [car_type_id] => 3
            [car_type_name] => LUXURY
            [car_type_image] => uploads/car/editcar_3.png
            [city_id] => 126
            [base_fare] => 90 Per 3 Km
            [ride_mode] => 1
            [currency_iso_code] => QAR
            [currency_unicode] => 0
        )

)

city_name: Doha
latitude: 25.350566866715347
longitude: 51.502453163266175
-------------------------
