Driver App - Login driver Api: October 17, 2017, 11:42 am
Response: Array
(
    [driver_id] => 4
    [company_id] => 0
    [commission] => 5
    [driver_name] => qwerty
    [driver_email] => q@9.com
    [driver_phone] => 1234512345
    [driver_image] => 
    [driver_password] => qwerty
    [driver_token] => W2CKHQJzOoJj1qTI
    [total_payment_eraned] => 285
    [company_payment] => 15
    [driver_payment] => 
    [device_id] => 0E25E1072F988CA22286C341FED23735D7B87C1B8B900280B547C48D229865F2
    [flag] => 1
    [rating] => 1.66666666667
    [car_type_id] => 3
    [car_model_id] => 20
    [car_number] => 1234
    [city_id] => 56
    [register_date] => Thursday, Oct 12
    [license] => 
    [license_expire] => 
    [rc] => 
    [rc_expire] => 
    [insurance] => 
    [insurance_expire] => 
    [other_docs] => 
    [driver_bank_name] => 
    [driver_account_number] => 
    [total_card_payment] => 0.00
    [total_cash_payment] => 0.00
    [amount_transfer_pending] => 0.00
    [current_lat] => 28.412074315358
    [current_long] => 77.0432793482939
    [current_location] => 68, Plaza Street, Block S, Uppal Southend, Sector 49 , Gurugram, Haryana 122018
    [last_update] => 11:17
    [last_update_date] => Tuesday, Oct 17, 2017
    [completed_rides] => 3
    [reject_rides] => 0
    [cancelled_rides] => 0
    [login_logout] => 1
    [busy] => 0
    [online_offline] => 2
    [detail_status] => 2
    [payment_transfer] => 0
    [verification_date] => 
    [verification_status] => 1
    [unique_number] => 
    [driver_signup_date] => 2017-10-12
    [driver_status_image] => http://www.apporiotaxi.com/superadminpanel/images/icons8-Error-80.png
    [driver_status_message] => your document id in under process, You will be notified very soon
    [total_document_need] => 3
    [driver_admin_status] => 1
    [verfiy_document] => 0
    [city_name] => Gurugram
    [city_latitude] => 
    [city_longitude] => 
    [currency] => &#x20a8
    [currency_iso_code] => AUD
    [currency_unicode] => 0024
    [distance] => Miles
    [city_name_arabic] => 
    [city_name_french] => 
    [city_admin_status] => 1
    [car_type_name] => TAXI PREMIUM
    [car_model_name] => Sunny
)

driver_email_phone: q@9.com
driver_password: qwerty
-------------------------
car by city api -: October 17, 2017, 11:43 am
Response: {"result":1,"msg":"2.30781206882","details":{"ride_id":"21","user_id":"4","coupon_code":"","pickup_lat":"28.4121083850048","pickup_long":"77.0432517330982","pickup_location":"68, Plaza Street, Block S, Uppal Southend, Sector 49\nGurugram, Haryana 122018","drop_lat":"28.4491822474172","drop_long":"77.1144600212574","drop_location":"Unnamed Road, DLF Phase 5, Sector 54\nGurugram, Haryana 122011","ride_date":"Tuesday, Oct 17","ride_time":"11:43:06","last_time_stamp":"11:43:06 AM","ride_image":"https:maps.googleapis.com\/maps\/api\/staticmap?center=&zoom=12&size=200x200&maptype=roadmap&markers=color:green|label:S|28.4121083850048,77.0432517330982&markers=color:red|label:D|28.4491822474172,77.1144600212574&key=AIzaSyAIFe17P91Mfez3T6cqk7hfDSyvMO812Z4","later_date":"","later_time":"","driver_id":"0","car_type_id":"2","ride_type":"1","pem_file":"1","ride_status":"1","payment_status":"0","reason_id":"0","payment_option_id":"1","card_id":"0","ride_platform":"1","ride_admin_status":"1","date":"2017-10-17"}}
drop_lat: 28.4491822474172
drop_long: 77.1144600212574
drop_location: Unnamed Road, DLF Phase 5, Sector 54
Gurugram, Haryana 122011
car_type_id:2
user_id:4
coupon_code :
pickup_lat : 28.4121083850048
pickup_long : 77.0432517330982
pickup_location :68, Plaza Street, Block S, Uppal Southend, Sector 49
Gurugram, Haryana 122018
payment_option_id :1
card_id :
pem_file :1
-------------------------
car by city api -: October 17, 2017, 11:44 am
Response: {"result":1,"msg":"2.30781206882","details":{"ride_id":"22","user_id":"4","coupon_code":"","pickup_lat":"28.4121083850048","pickup_long":"77.0432517330982","pickup_location":"68, Plaza Street, Block S, Uppal Southend, Sector 49\nGurugram, Haryana 122018","drop_lat":"28.4491822474172","drop_long":"77.1144600212574","drop_location":"Unnamed Road, DLF Phase 5, Sector 54\nGurugram, Haryana 122011","ride_date":"Tuesday, Oct 17","ride_time":"11:44:13","last_time_stamp":"11:44:13 AM","ride_image":"https:maps.googleapis.com\/maps\/api\/staticmap?center=&zoom=12&size=200x200&maptype=roadmap&markers=color:green|label:S|28.4121083850048,77.0432517330982&markers=color:red|label:D|28.4491822474172,77.1144600212574&key=AIzaSyAIFe17P91Mfez3T6cqk7hfDSyvMO812Z4","later_date":"","later_time":"","driver_id":"0","car_type_id":"2","ride_type":"1","pem_file":"1","ride_status":"1","payment_status":"0","reason_id":"0","payment_option_id":"1","card_id":"0","ride_platform":"1","ride_admin_status":"1","date":"2017-10-17"}}
drop_lat: 28.4491822474172
drop_long: 77.1144600212574
drop_location: Unnamed Road, DLF Phase 5, Sector 54
Gurugram, Haryana 122011
car_type_id:2
user_id:4
coupon_code :
pickup_lat : 28.4121083850048
pickup_long : 77.0432517330982
pickup_location :68, Plaza Street, Block S, Uppal Southend, Sector 49
Gurugram, Haryana 122018
payment_option_id :1
card_id :
pem_file :1
-------------------------
