car by city api -: November 15, 2017, 9:20 am
Response: {"result":1,"msg":[{"car_type_id":"2","car_type_name":"SEDAN","car_name_arabic":"","car_type_name_french":"HATCHBACK","car_type_image":"uploads\/car\/editcar_2.png","cartype_image_size":"webstatic\/img\/fleet-image\/prime-play.png","ride_mode":"1","car_admin_status":"1","city_id":"56"},{"car_type_id":"3","car_type_name":"LUXURY","car_name_arabic":"","car_type_name_french":"LUXURY","car_type_image":"uploads\/car\/editcar_3.png","cartype_image_size":"webstatic\/img\/fleet-image\/lux.png","ride_mode":"1","car_admin_status":"1","city_id":"56"},{"car_type_id":"4","car_type_name":"SUV","car_name_arabic":"","car_type_name_french":"Mini","car_type_image":"uploads\/car\/editcar_4.png","cartype_image_size":"webstatic\/img\/fleet-image\/mini.png","ride_mode":"1","car_admin_status":"1","city_id":"56"}]}
city_id: 56
-------------------------
Driver App - Login driver Api: November 15, 2017, 9:24 am
Response: Array
(
    [driver_id] => 42
    [company_id] => 0
    [commission] => 5
    [driver_name] => hdhd
    [driver_email] => guru@56.com
    [driver_phone] => 2222222202
    [driver_image] => 
    [driver_password] => qwert
    [driver_token] => dmpVBQKWwzWynO8R
    [total_payment_eraned] => 0
    [company_payment] => 0
    [driver_payment] => 
    [device_id] => 711B40D932B03FA3E0C8F99F2CBB0479580848D82EFC706A4EDDA668EB9BB006
    [flag] => 1
    [rating] => 
    [car_type_id] => 3
    [car_model_id] => 20
    [car_number] => 1234
    [city_id] => 56
    [register_date] => Wednesday, Nov 15
    [license] => 
    [license_expire] => 
    [rc] => 
    [rc_expire] => 
    [insurance] => 
    [insurance_expire] => 
    [other_docs] => 
    [driver_bank_name] => 
    [driver_account_number] => 
    [total_card_payment] => 0.00
    [total_cash_payment] => 0.00
    [amount_transfer_pending] => 0.00
    [current_lat] => 
    [current_long] => 
    [current_location] => 
    [last_update] => 09:21
    [last_update_date] => 
    [completed_rides] => 0
    [reject_rides] => 0
    [cancelled_rides] => 0
    [login_logout] => 1
    [busy] => 0
    [online_offline] => 0
    [detail_status] => 2
    [payment_transfer] => 0
    [verification_date] => 
    [verification_status] => 1
    [unique_number] => 
    [driver_signup_date] => 2017-11-15
    [driver_status_image] => http://www.apporiotaxi.com/superadminpanel/images/icons8-Error-80.png
    [driver_status_message] => your document id in under process, You will be notified very soon
    [total_document_need] => 3
    [driver_admin_status] => 1
    [verfiy_document] => 0
    [driver_image_first] => uploads/driver/driver_first_image_42.jpg
    [driver_image_second] => uploads/driver/driver_image_second42.jpg
    [car_image_first] => uploads/driver/car_image_first42.jpg
    [car_image_second] => uploads/driver/car_image_second42.jpg
    [city_name] => Gurugram
    [city_latitude] => 
    [city_longitude] => 
    [currency] => QAR
    [currency_iso_code] => QAR
    [currency_unicode] => 0
    [distance] => Km
    [city_name_arabic] => 
    [city_name_french] => 
    [city_admin_status] => 1
    [car_type_name] => LUXURY
    [car_model_name] => Sunny
)

driver_email_phone: 2222222202
driver_password: qwert
-------------------------
car by city api -: November 15, 2017, 9:32 am
Response: {"result":1,"msg":"0","details":{"ride_id":"46","user_id":"13","coupon_code":"","pickup_lat":"28.4120645594237","pickup_long":"77.0434371381998","pickup_location":"68, Plaza Street, Block S, Uppal Southend, Sector 49\nGurugram, Haryana 122018","drop_lat":"28.4378225646933","drop_long":"77.083593159914","drop_location":"1438, Sarswati Kunj II, Wazirabad, Sector 52\nGurugram, Haryana 122003","ride_date":"Wednesday, Nov 15","ride_time":"09:32:25","last_time_stamp":"09:32:25 AM","ride_image":"https:maps.googleapis.com\/maps\/api\/staticmap?center=&zoom=12&size=200x200&maptype=roadmap&markers=color:green|label:S|28.4120645594237,77.0434371381998&markers=color:red|label:D|28.4378225646933,77.083593159914&key=AIzaSyAIFe17P91Mfez3T6cqk7hfDSyvMO812Z4","later_date":"","later_time":"","driver_id":"0","car_type_id":"3","ride_type":"1","pem_file":"1","ride_status":"1","payment_status":"0","reason_id":"0","payment_option_id":"1","card_id":"0","ride_platform":"1","ride_admin_status":"1","date":"2017-11-15"}}
drop_lat: 28.4378225646933
drop_long: 77.083593159914
drop_location: 1438, Sarswati Kunj II, Wazirabad, Sector 52
Gurugram, Haryana 122003
car_type_id:3
user_id:13
coupon_code :
pickup_lat : 28.4120645594237
pickup_long : 77.0434371381998
pickup_location :68, Plaza Street, Block S, Uppal Southend, Sector 49
Gurugram, Haryana 122018
payment_option_id :1
card_id :
pem_file :1
-------------------------
car by city api -: November 15, 2017, 9:32 am
Response: {"result":0,"msg":"Required Field Missing"}
drop_lat: 
drop_long: 
drop_location: 
car_type_id:
user_id:
coupon_code :
pickup_lat : 
pickup_long : 
pickup_location :
payment_option_id :
card_id :
pem_file :
-------------------------
Ride Accept api -: November 15, 2017, 9:32 am
Response: {"result":1,"msg":"Booking Accepted!!","details":{"ride_id":"46","user_id":"13","coupon_code":"","pickup_lat":"28.4120645594237","pickup_long":"77.0434371381998","pickup_location":"68, Plaza Street, Block S, Uppal Southend, Sector 49\nGurugram, Haryana 122018","drop_lat":"28.4378225646933","drop_long":"77.083593159914","drop_location":"1438, Sarswati Kunj II, Wazirabad, Sector 52\nGurugram, Haryana 122003","ride_date":"Wednesday, Nov 15","ride_time":"09:32:25","last_time_stamp":"09:32:35 AM","ride_image":"https:maps.googleapis.com\/maps\/api\/staticmap?center=&zoom=12&size=200x200&maptype=roadmap&markers=color:green|label:S|28.4120645594237,77.0434371381998&markers=color:red|label:D|28.4378225646933,77.083593159914&key=AIzaSyAIFe17P91Mfez3T6cqk7hfDSyvMO812Z4","later_date":"","later_time":"","driver_id":"42","car_type_id":"3","ride_type":"1","pem_file":"1","ride_status":"3","payment_status":"0","reason_id":"0","payment_option_id":"1","card_id":"0","ride_platform":"1","ride_admin_status":"1","date":"2017-11-15","user_type":"1","user_name":"hfhffhhfgffh .","user_email":"jvjgj@67.com","user_phone":"+916666666666","user_password":"qwerty","user_image":"","device_id":"711B40D932B03FA3E0C8F99F2CBB0479580848D82EFC706A4EDDA668EB9BB006","flag":"1","wallet_money":"0","register_date":"Wednesday, Nov 15","referral_code":"","free_rides":"0","referral_code_send":"0","phone_verified":"0","email_verified":"0","password_created":"0","facebook_id":"","facebook_mail":"","facebook_image":"","facebook_firstname":"","facebook_lastname":"","google_id":"","google_name":"","google_mail":"","google_image":"","google_token":"","facebook_token":"","token_created":"0","login_logout":"1","rating":"","user_delete":"0","unique_number":"","user_signup_type":"1","user_signup_date":"2017-11-15","status":"1","car_type_name":"LUXURY","car_name_arabic":"","car_type_name_french":"LUXURY","car_type_image":"uploads\/car\/editcar_3.png","cartype_image_size":"webstatic\/img\/fleet-image\/lux.png","ride_mode":"1","car_admin_status":"1","company_id":"0","commission":"5","driver_name":"hdhd","driver_email":"guru@56.com","driver_phone":"2222222202","driver_image":"","driver_password":"qwert","driver_token":"dmpVBQKWwzWynO8R","total_payment_eraned":"0","company_payment":"0","driver_payment":"","car_model_id":"20","car_number":"1234","city_id":"56","license":"","license_expire":"","rc":"","rc_expire":"","insurance":"","insurance_expire":"","other_docs":"","driver_bank_name":"","driver_account_number":"","total_card_payment":"0.00","total_cash_payment":"0.00","amount_transfer_pending":"0.00","current_lat":"28.4120646771308","current_long":"77.0434371382716","current_location":"68, Plaza Street, Block S, Uppal Southend, Sector 49 , Gurugram, Haryana 122018","last_update":"09:32","last_update_date":"Wednesday, Nov 15, 2017","completed_rides":"0","reject_rides":"0","cancelled_rides":"0","busy":"1","online_offline":"1","detail_status":"2","payment_transfer":"0","verification_date":"","verification_status":"1","driver_signup_date":"2017-11-15","driver_status_image":"http:\/\/www.apporiotaxi.com\/superadminpanel\/images\/icons8-Error-80.png","driver_status_message":"your document id in under process, You will be notified very soon","total_document_need":"3","driver_admin_status":"1","verfiy_document":"0","driver_image_first":"uploads\/driver\/driver_first_image_42.jpg","driver_image_second":"uploads\/driver\/driver_image_second42.jpg","car_image_first":"uploads\/driver\/car_image_first42.jpg","car_image_second":"uploads\/driver\/car_image_second42.jpg"}}
ride_id: 46
driver_id: 42
driver_token: dmpVBQKWwzWynO8R
-------------------------
Ride Accept api -: November 15, 2017, 9:33 am
Response: {"result":0,"msg":"Ride Expire"}
ride_id: 46
driver_id: 42
driver_token: dmpVBQKWwzWynO8R
-------------------------
car by city api -: November 15, 2017, 9:34 am
Response: {"result":1,"msg":"0","details":{"ride_id":"47","user_id":"13","coupon_code":"","pickup_lat":"28.4120985819291","pickup_long":"77.0433053747537","pickup_location":"68, Plaza Street, Block S, Uppal Southend, Sector 49\nGurugram, Haryana 122018","drop_lat":"28.4378225646933","drop_long":"77.083593159914","drop_location":"1438, Sarswati Kunj II, Wazirabad, Sector 52\nGurugram, Haryana 122003","ride_date":"Wednesday, Nov 15","ride_time":"09:34:33","last_time_stamp":"09:34:33 AM","ride_image":"https:maps.googleapis.com\/maps\/api\/staticmap?center=&zoom=12&size=200x200&maptype=roadmap&markers=color:green|label:S|28.4120985819291,77.0433053747537&markers=color:red|label:D|28.4378225646933,77.083593159914&key=AIzaSyAIFe17P91Mfez3T6cqk7hfDSyvMO812Z4","later_date":"","later_time":"","driver_id":"0","car_type_id":"3","ride_type":"1","pem_file":"1","ride_status":"1","payment_status":"0","reason_id":"0","payment_option_id":"2","card_id":"0","ride_platform":"1","ride_admin_status":"1","date":"2017-11-15"}}
drop_lat: 28.4378225646933
drop_long: 77.083593159914
drop_location: 1438, Sarswati Kunj II, Wazirabad, Sector 52
Gurugram, Haryana 122003
car_type_id:3
user_id:13
coupon_code :
pickup_lat : 28.4120985819291
pickup_long : 77.0433053747537
pickup_location :68, Plaza Street, Block S, Uppal Southend, Sector 49
Gurugram, Haryana 122018
payment_option_id :2
card_id :
pem_file :1
-------------------------
Ride Accept api -: November 15, 2017, 9:34 am
Response: {"result":0,"msg":"Required 1 missing!!"}
ride_id: 
driver_id: 
driver_token: 
-------------------------
Ride Accept api -: November 15, 2017, 9:34 am
Response: {"result":1,"msg":"Booking Accepted!!","details":{"ride_id":"47","user_id":"13","coupon_code":"","pickup_lat":"28.4120985819291","pickup_long":"77.0433053747537","pickup_location":"68, Plaza Street, Block S, Uppal Southend, Sector 49\nGurugram, Haryana 122018","drop_lat":"28.4378225646933","drop_long":"77.083593159914","drop_location":"1438, Sarswati Kunj II, Wazirabad, Sector 52\nGurugram, Haryana 122003","ride_date":"Wednesday, Nov 15","ride_time":"09:34:33","last_time_stamp":"09:34:52 AM","ride_image":"https:maps.googleapis.com\/maps\/api\/staticmap?center=&zoom=12&size=200x200&maptype=roadmap&markers=color:green|label:S|28.4120985819291,77.0433053747537&markers=color:red|label:D|28.4378225646933,77.083593159914&key=AIzaSyAIFe17P91Mfez3T6cqk7hfDSyvMO812Z4","later_date":"","later_time":"","driver_id":"42","car_type_id":"3","ride_type":"1","pem_file":"1","ride_status":"3","payment_status":"0","reason_id":"0","payment_option_id":"2","card_id":"0","ride_platform":"1","ride_admin_status":"1","date":"2017-11-15","user_type":"1","user_name":"hfhffhhfgffh .","user_email":"jvjgj@67.com","user_phone":"+916666666666","user_password":"qwerty","user_image":"","device_id":"711B40D932B03FA3E0C8F99F2CBB0479580848D82EFC706A4EDDA668EB9BB006","flag":"1","wallet_money":"0","register_date":"Wednesday, Nov 15","referral_code":"","free_rides":"0","referral_code_send":"0","phone_verified":"0","email_verified":"0","password_created":"0","facebook_id":"","facebook_mail":"","facebook_image":"","facebook_firstname":"","facebook_lastname":"","google_id":"","google_name":"","google_mail":"","google_image":"","google_token":"","facebook_token":"","token_created":"0","login_logout":"1","rating":"","user_delete":"0","unique_number":"","user_signup_type":"1","user_signup_date":"2017-11-15","status":"1","car_type_name":"LUXURY","car_name_arabic":"","car_type_name_french":"LUXURY","car_type_image":"uploads\/car\/editcar_3.png","cartype_image_size":"webstatic\/img\/fleet-image\/lux.png","ride_mode":"1","car_admin_status":"1","company_id":"0","commission":"5","driver_name":"hdhd","driver_email":"guru@56.com","driver_phone":"2222222202","driver_image":"","driver_password":"qwert","driver_token":"dmpVBQKWwzWynO8R","total_payment_eraned":"0","company_payment":"0","driver_payment":"","car_model_id":"20","car_number":"1234","city_id":"56","license":"","license_expire":"","rc":"","rc_expire":"","insurance":"","insurance_expire":"","other_docs":"","driver_bank_name":"","driver_account_number":"","total_card_payment":"0.00","total_cash_payment":"0.00","amount_transfer_pending":"0.00","current_lat":"28.4120985819291","current_long":"77.0433053747537","current_location":"68, Plaza Street, Block S, Uppal Southend, Sector 49 , Gurugram, Haryana 122018","last_update":"09:34","last_update_date":"Wednesday, Nov 15, 2017","completed_rides":"0","reject_rides":"0","cancelled_rides":"1","busy":"1","online_offline":"1","detail_status":"2","payment_transfer":"0","verification_date":"","verification_status":"1","driver_signup_date":"2017-11-15","driver_status_image":"http:\/\/www.apporiotaxi.com\/superadminpanel\/images\/icons8-Error-80.png","driver_status_message":"your document id in under process, You will be notified very soon","total_document_need":"3","driver_admin_status":"1","verfiy_document":"0","driver_image_first":"uploads\/driver\/driver_first_image_42.jpg","driver_image_second":"uploads\/driver\/driver_image_second42.jpg","car_image_first":"uploads\/driver\/car_image_first42.jpg","car_image_second":"uploads\/driver\/car_image_second42.jpg"}}
ride_id: 47
driver_id: 42
driver_token: dmpVBQKWwzWynO8R
-------------------------
ride start to road  Api - : November 15, 2017, 9:35 am
ride_id :47
driver_id: 42
begin_lat: 28.4124599676844
begin_long: 77.0433882717761
driver_token: dmpVBQKWwzWynO8R
-------------------------
ride end Api - : November 15, 2017, 9:35 am
ride_id: 47
driver_id: 42
end_lat: 28.4124599676844
end_long: 77.0433882717761
meter_distance: 0.0
lat_long: 
-------------------------
car by city api -: November 15, 2017, 9:56 am
Response: {"result":1,"msg":[{"car_type_id":"2","car_type_name":"SEDAN","car_name_arabic":"","car_type_name_french":"HATCHBACK","car_type_image":"uploads\/car\/editcar_2.png","cartype_image_size":"webstatic\/img\/fleet-image\/prime-play.png","ride_mode":"1","car_admin_status":"1","city_id":"56"},{"car_type_id":"3","car_type_name":"LUXURY","car_name_arabic":"","car_type_name_french":"LUXURY","car_type_image":"uploads\/car\/editcar_3.png","cartype_image_size":"webstatic\/img\/fleet-image\/lux.png","ride_mode":"1","car_admin_status":"1","city_id":"56"},{"car_type_id":"4","car_type_name":"SUV","car_name_arabic":"","car_type_name_french":"Mini","car_type_image":"uploads\/car\/editcar_4.png","cartype_image_size":"webstatic\/img\/fleet-image\/mini.png","ride_mode":"1","car_admin_status":"1","city_id":"56"}]}
city_id: 56
-------------------------
Driver App - Login driver Api: November 15, 2017, 9:58 am
Response: Array
(
    [driver_id] => 43
    [company_id] => 0
    [commission] => 5
    [driver_name] => hxxh
    [driver_email] => djdj@00.com
    [driver_phone] => 3333333331
    [driver_image] => 
    [driver_password] => qwerty
    [driver_token] => ZSOqr61Q6wKKe3QO
    [total_payment_eraned] => 0
    [company_payment] => 0
    [driver_payment] => 
    [device_id] => AF01E192488E9BD0FC63627AEF73BD716329B2E9302657B823273FD0A3CD33A6
    [flag] => 1
    [rating] => 
    [car_type_id] => 3
    [car_model_id] => 20
    [car_number] => 1234
    [city_id] => 56
    [register_date] => Wednesday, Nov 15
    [license] => 
    [license_expire] => 
    [rc] => 
    [rc_expire] => 
    [insurance] => 
    [insurance_expire] => 
    [other_docs] => 
    [driver_bank_name] => 
    [driver_account_number] => 
    [total_card_payment] => 0.00
    [total_cash_payment] => 0.00
    [amount_transfer_pending] => 0.00
    [current_lat] => 
    [current_long] => 
    [current_location] => 
    [last_update] => 09:57
    [last_update_date] => 
    [completed_rides] => 0
    [reject_rides] => 0
    [cancelled_rides] => 0
    [login_logout] => 1
    [busy] => 0
    [online_offline] => 0
    [detail_status] => 2
    [payment_transfer] => 0
    [verification_date] => 
    [verification_status] => 1
    [unique_number] => 
    [driver_signup_date] => 2017-11-15
    [driver_status_image] => http://www.apporiotaxi.com/superadminpanel/images/icons8-Error-80.png
    [driver_status_message] => your document id in under process, You will be notified very soon
    [total_document_need] => 3
    [driver_admin_status] => 1
    [verfiy_document] => 0
    [driver_image_first] => uploads/driver/driver_first_image_43.jpg
    [driver_image_second] => uploads/driver/driver_image_second43.jpg
    [car_image_first] => uploads/driver/car_image_first43.jpg
    [car_image_second] => uploads/driver/car_image_second43.jpg
    [city_name] => Gurugram
    [city_latitude] => 
    [city_longitude] => 
    [currency] => QAR
    [currency_iso_code] => QAR
    [currency_unicode] => 0
    [distance] => Km
    [city_name_arabic] => 
    [city_name_french] => 
    [city_admin_status] => 1
    [car_type_name] => LUXURY
    [car_model_name] => Sunny
)

driver_email_phone: 3333333331
driver_password: qwerty
-------------------------
car by city api -: November 15, 2017, 10:02 am
Response: {"result":1,"msg":"0.00690062182657","details":{"ride_id":"48","user_id":"14","coupon_code":"","pickup_lat":"28.4121288878965","pickup_long":"77.0432956382053","pickup_location":"68, Plaza Street, Block S, Uppal Southend, Sector 49\nGurugram, Haryana 122018","drop_lat":"28.4203462656687","drop_long":"77.0750141143799","drop_location":"E 142, Sushant Lok III Extension, Sector 57\nGurugram, Haryana 122003","ride_date":"Wednesday, Nov 15","ride_time":"10:02:09","last_time_stamp":"10:02:09 AM","ride_image":"https:maps.googleapis.com\/maps\/api\/staticmap?center=&zoom=12&size=200x200&maptype=roadmap&markers=color:green|label:S|28.4121288878965,77.0432956382053&markers=color:red|label:D|28.4203462656687,77.0750141143799&key=AIzaSyAIFe17P91Mfez3T6cqk7hfDSyvMO812Z4","later_date":"","later_time":"","driver_id":"0","car_type_id":"3","ride_type":"1","pem_file":"1","ride_status":"1","payment_status":"0","reason_id":"0","payment_option_id":"2","card_id":"0","ride_platform":"1","ride_admin_status":"1","date":"2017-11-15"}}
drop_lat: 28.4203462656687
drop_long: 77.0750141143799
drop_location: E 142, Sushant Lok III Extension, Sector 57
Gurugram, Haryana 122003
car_type_id:3
user_id:14
coupon_code :
pickup_lat : 28.4121288878965
pickup_long : 77.0432956382053
pickup_location :68, Plaza Street, Block S, Uppal Southend, Sector 49
Gurugram, Haryana 122018
payment_option_id :2
card_id :
pem_file :1
-------------------------
car by city api -: November 15, 2017, 10:03 am
Response: {"result":1,"msg":"0.00690062182657","details":{"ride_id":"49","user_id":"14","coupon_code":"","pickup_lat":"28.4121288878965","pickup_long":"77.0432956382053","pickup_location":"68, Plaza Street, Block S, Uppal Southend, Sector 49\nGurugram, Haryana 122018","drop_lat":"28.4203462656687","drop_long":"77.0750141143799","drop_location":"E 142, Sushant Lok III Extension, Sector 57\nGurugram, Haryana 122003","ride_date":"Wednesday, Nov 15","ride_time":"10:03:24","last_time_stamp":"10:03:24 AM","ride_image":"https:maps.googleapis.com\/maps\/api\/staticmap?center=&zoom=12&size=200x200&maptype=roadmap&markers=color:green|label:S|28.4121288878965,77.0432956382053&markers=color:red|label:D|28.4203462656687,77.0750141143799&key=AIzaSyAIFe17P91Mfez3T6cqk7hfDSyvMO812Z4","later_date":"","later_time":"","driver_id":"0","car_type_id":"3","ride_type":"1","pem_file":"1","ride_status":"1","payment_status":"0","reason_id":"0","payment_option_id":"2","card_id":"0","ride_platform":"1","ride_admin_status":"1","date":"2017-11-15"}}
drop_lat: 28.4203462656687
drop_long: 77.0750141143799
drop_location: E 142, Sushant Lok III Extension, Sector 57
Gurugram, Haryana 122003
car_type_id:3
user_id:14
coupon_code :
pickup_lat : 28.4121288878965
pickup_long : 77.0432956382053
pickup_location :68, Plaza Street, Block S, Uppal Southend, Sector 49
Gurugram, Haryana 122018
payment_option_id :2
card_id :
pem_file :1
-------------------------
car by city api -: November 15, 2017, 10:05 am
Response: {"result":1,"msg":"0.00690062182657","details":{"ride_id":"50","user_id":"14","coupon_code":"","pickup_lat":"28.4121288878965","pickup_long":"77.0432956382053","pickup_location":"68, Plaza Street, Block S, Uppal Southend, Sector 49\nGurugram, Haryana 122018","drop_lat":"28.4203462656687","drop_long":"77.0750141143799","drop_location":"E 142, Sushant Lok III Extension, Sector 57\nGurugram, Haryana 122003","ride_date":"Wednesday, Nov 15","ride_time":"10:05:16","last_time_stamp":"10:05:16 AM","ride_image":"https:maps.googleapis.com\/maps\/api\/staticmap?center=&zoom=12&size=200x200&maptype=roadmap&markers=color:green|label:S|28.4121288878965,77.0432956382053&markers=color:red|label:D|28.4203462656687,77.0750141143799&key=AIzaSyAIFe17P91Mfez3T6cqk7hfDSyvMO812Z4","later_date":"","later_time":"","driver_id":"0","car_type_id":"3","ride_type":"1","pem_file":"1","ride_status":"1","payment_status":"0","reason_id":"0","payment_option_id":"2","card_id":"0","ride_platform":"1","ride_admin_status":"1","date":"2017-11-15"}}
drop_lat: 28.4203462656687
drop_long: 77.0750141143799
drop_location: E 142, Sushant Lok III Extension, Sector 57
Gurugram, Haryana 122003
car_type_id:3
user_id:14
coupon_code :
pickup_lat : 28.4121288878965
pickup_long : 77.0432956382053
pickup_location :68, Plaza Street, Block S, Uppal Southend, Sector 49
Gurugram, Haryana 122018
payment_option_id :2
card_id :
pem_file :1
-------------------------
Ride Accept api -: November 15, 2017, 10:05 am
Response: {"result":1,"msg":"Booking Accepted!!","details":{"ride_id":"50","user_id":"14","coupon_code":"","pickup_lat":"28.4121288878965","pickup_long":"77.0432956382053","pickup_location":"68, Plaza Street, Block S, Uppal Southend, Sector 49\nGurugram, Haryana 122018","drop_lat":"28.4203462656687","drop_long":"77.0750141143799","drop_location":"E 142, Sushant Lok III Extension, Sector 57\nGurugram, Haryana 122003","ride_date":"Wednesday, Nov 15","ride_time":"10:05:16","last_time_stamp":"10:05:29 AM","ride_image":"https:maps.googleapis.com\/maps\/api\/staticmap?center=&zoom=12&size=200x200&maptype=roadmap&markers=color:green|label:S|28.4121288878965,77.0432956382053&markers=color:red|label:D|28.4203462656687,77.0750141143799&key=AIzaSyAIFe17P91Mfez3T6cqk7hfDSyvMO812Z4","later_date":"","later_time":"","driver_id":"43","car_type_id":"3","ride_type":"1","pem_file":"1","ride_status":"3","payment_status":"0","reason_id":"0","payment_option_id":"2","card_id":"0","ride_platform":"1","ride_admin_status":"1","date":"2017-11-15","user_type":"1","user_name":"fofj .","user_email":"kfk@46.com","user_phone":"+910000011111","user_password":"qwerty","user_image":"","device_id":"AF01E192488E9BD0FC63627AEF73BD716329B2E9302657B823273FD0A3CD33A6","flag":"1","wallet_money":"0","register_date":"Wednesday, Nov 15","referral_code":"","free_rides":"0","referral_code_send":"0","phone_verified":"0","email_verified":"0","password_created":"0","facebook_id":"","facebook_mail":"","facebook_image":"","facebook_firstname":"","facebook_lastname":"","google_id":"","google_name":"","google_mail":"","google_image":"","google_token":"","facebook_token":"","token_created":"0","login_logout":"1","rating":"","user_delete":"0","unique_number":"","user_signup_type":"1","user_signup_date":"2017-11-15","status":"1","car_type_name":"LUXURY","car_name_arabic":"","car_type_name_french":"LUXURY","car_type_image":"uploads\/car\/editcar_3.png","cartype_image_size":"webstatic\/img\/fleet-image\/lux.png","ride_mode":"1","car_admin_status":"1","company_id":"0","commission":"5","driver_name":"hxxh","driver_email":"djdj@00.com","driver_phone":"3333333331","driver_image":"","driver_password":"qwerty","driver_token":"ZSOqr61Q6wKKe3QO","total_payment_eraned":"0","company_payment":"0","driver_payment":"","car_model_id":"20","car_number":"1234","city_id":"56","license":"","license_expire":"","rc":"","rc_expire":"","insurance":"","insurance_expire":"","other_docs":"","driver_bank_name":"","driver_account_number":"","total_card_payment":"0.00","total_cash_payment":"0.00","amount_transfer_pending":"0.00","current_lat":"28.4120681014847","current_long":"77.0432813742228","current_location":"68, Plaza Street, Block S, Uppal Southend, Sector 49 , Gurugram, Haryana 122018","last_update":"10:05","last_update_date":"Wednesday, Nov 15, 2017","completed_rides":"0","reject_rides":"0","cancelled_rides":"0","busy":"1","online_offline":"1","detail_status":"2","payment_transfer":"0","verification_date":"","verification_status":"1","driver_signup_date":"2017-11-15","driver_status_image":"http:\/\/www.apporiotaxi.com\/superadminpanel\/images\/icons8-Error-80.png","driver_status_message":"your document id in under process, You will be notified very soon","total_document_need":"3","driver_admin_status":"1","verfiy_document":"0","driver_image_first":"uploads\/driver\/driver_first_image_43.jpg","driver_image_second":"uploads\/driver\/driver_image_second43.jpg","car_image_first":"uploads\/driver\/car_image_first43.jpg","car_image_second":"uploads\/driver\/car_image_second43.jpg"}}
ride_id: 50
driver_id: 43
driver_token: ZSOqr61Q6wKKe3QO
-------------------------
ride start to road  Api - : November 15, 2017, 10:05 am
ride_id :50
driver_id: 43
begin_lat: 28.4120657269221
begin_long: 77.0432926560175
driver_token: ZSOqr61Q6wKKe3QO
-------------------------
ride end Api - : November 15, 2017, 10:05 am
ride_id: 50
driver_id: 43
end_lat: 28.4120656320218
end_long: 77.04328707546
meter_distance: 0.0
lat_long: 
-------------------------
car by city api -: November 15, 2017, 10:17 am
Response: {"result":1,"msg":"0.00466900949596","details":{"ride_id":"51","user_id":"14","coupon_code":"","pickup_lat":"28.4120648543153","pickup_long":"77.0432296022773","pickup_location":"68, Plaza Street, Block S, Uppal Southend, Sector 49\nGurugram, Haryana 122018","drop_lat":"28.4512174453855","drop_long":"77.0865114033222","drop_location":"2129, Sushant Lok Road, Block C, Sushant Lok Phase I, Sector 43\nGurugram, Haryana 122003","ride_date":"Wednesday, Nov 15","ride_time":"10:17:55","last_time_stamp":"10:17:55 AM","ride_image":"https:maps.googleapis.com\/maps\/api\/staticmap?center=&zoom=12&size=200x200&maptype=roadmap&markers=color:green|label:S|28.4120648543153,77.0432296022773&markers=color:red|label:D|28.4512174453855,77.0865114033222&key=AIzaSyAIFe17P91Mfez3T6cqk7hfDSyvMO812Z4","later_date":"","later_time":"","driver_id":"0","car_type_id":"3","ride_type":"1","pem_file":"1","ride_status":"1","payment_status":"0","reason_id":"0","payment_option_id":"2","card_id":"0","ride_platform":"1","ride_admin_status":"1","date":"2017-11-15"}}
drop_lat: 28.4512174453855
drop_long: 77.0865114033222
drop_location: 2129, Sushant Lok Road, Block C, Sushant Lok Phase I, Sector 43
Gurugram, Haryana 122003
car_type_id:3
user_id:14
coupon_code :
pickup_lat : 28.4120648543153
pickup_long : 77.0432296022773
pickup_location :68, Plaza Street, Block S, Uppal Southend, Sector 49
Gurugram, Haryana 122018
payment_option_id :2
card_id :
pem_file :1
-------------------------
car by city api -: November 15, 2017, 10:19 am
Response: {"result":1,"msg":"0.00466900949596","details":{"ride_id":"52","user_id":"14","coupon_code":"","pickup_lat":"28.4120648543153","pickup_long":"77.0432296022773","pickup_location":"68, Plaza Street, Block S, Uppal Southend, Sector 49\nGurugram, Haryana 122018","drop_lat":"28.4512174453855","drop_long":"77.0865114033222","drop_location":"2129, Sushant Lok Road, Block C, Sushant Lok Phase I, Sector 43\nGurugram, Haryana 122003","ride_date":"Wednesday, Nov 15","ride_time":"10:19:13","last_time_stamp":"10:19:13 AM","ride_image":"https:maps.googleapis.com\/maps\/api\/staticmap?center=&zoom=12&size=200x200&maptype=roadmap&markers=color:green|label:S|28.4120648543153,77.0432296022773&markers=color:red|label:D|28.4512174453855,77.0865114033222&key=AIzaSyAIFe17P91Mfez3T6cqk7hfDSyvMO812Z4","later_date":"","later_time":"","driver_id":"0","car_type_id":"3","ride_type":"1","pem_file":"1","ride_status":"1","payment_status":"0","reason_id":"0","payment_option_id":"2","card_id":"0","ride_platform":"1","ride_admin_status":"1","date":"2017-11-15"}}
drop_lat: 28.4512174453855
drop_long: 77.0865114033222
drop_location: 2129, Sushant Lok Road, Block C, Sushant Lok Phase I, Sector 43
Gurugram, Haryana 122003
car_type_id:3
user_id:14
coupon_code :
pickup_lat : 28.4120648543153
pickup_long : 77.0432296022773
pickup_location :68, Plaza Street, Block S, Uppal Southend, Sector 49
Gurugram, Haryana 122018
payment_option_id :2
card_id :
pem_file :1
-------------------------
car by city api -: November 15, 2017, 10:20 am
Response: {"result":1,"msg":"0.00466900949596","details":{"ride_id":"53","user_id":"14","coupon_code":"","pickup_lat":"28.4120648543153","pickup_long":"77.0432296022773","pickup_location":"68, Plaza Street, Block S, Uppal Southend, Sector 49\nGurugram, Haryana 122018","drop_lat":"28.4512174453855","drop_long":"77.0865114033222","drop_location":"2129, Sushant Lok Road, Block C, Sushant Lok Phase I, Sector 43\nGurugram, Haryana 122003","ride_date":"Wednesday, Nov 15","ride_time":"10:20:24","last_time_stamp":"10:20:24 AM","ride_image":"https:maps.googleapis.com\/maps\/api\/staticmap?center=&zoom=12&size=200x200&maptype=roadmap&markers=color:green|label:S|28.4120648543153,77.0432296022773&markers=color:red|label:D|28.4512174453855,77.0865114033222&key=AIzaSyAIFe17P91Mfez3T6cqk7hfDSyvMO812Z4","later_date":"","later_time":"","driver_id":"0","car_type_id":"3","ride_type":"1","pem_file":"1","ride_status":"1","payment_status":"0","reason_id":"0","payment_option_id":"2","card_id":"0","ride_platform":"1","ride_admin_status":"1","date":"2017-11-15"}}
drop_lat: 28.4512174453855
drop_long: 77.0865114033222
drop_location: 2129, Sushant Lok Road, Block C, Sushant Lok Phase I, Sector 43
Gurugram, Haryana 122003
car_type_id:3
user_id:14
coupon_code :
pickup_lat : 28.4120648543153
pickup_long : 77.0432296022773
pickup_location :68, Plaza Street, Block S, Uppal Southend, Sector 49
Gurugram, Haryana 122018
payment_option_id :2
card_id :
pem_file :1
-------------------------
car by city api -: November 15, 2017, 10:21 am
Response: {"result":1,"msg":"0.00466900949596","details":{"ride_id":"54","user_id":"14","coupon_code":"","pickup_lat":"28.4120648543153","pickup_long":"77.0432296022773","pickup_location":"68, Plaza Street, Block S, Uppal Southend, Sector 49\nGurugram, Haryana 122018","drop_lat":"28.4512174453855","drop_long":"77.0865114033222","drop_location":"2129, Sushant Lok Road, Block C, Sushant Lok Phase I, Sector 43\nGurugram, Haryana 122003","ride_date":"Wednesday, Nov 15","ride_time":"10:21:12","last_time_stamp":"10:21:12 AM","ride_image":"https:maps.googleapis.com\/maps\/api\/staticmap?center=&zoom=12&size=200x200&maptype=roadmap&markers=color:green|label:S|28.4120648543153,77.0432296022773&markers=color:red|label:D|28.4512174453855,77.0865114033222&key=AIzaSyAIFe17P91Mfez3T6cqk7hfDSyvMO812Z4","later_date":"","later_time":"","driver_id":"0","car_type_id":"3","ride_type":"1","pem_file":"1","ride_status":"1","payment_status":"0","reason_id":"0","payment_option_id":"2","card_id":"0","ride_platform":"1","ride_admin_status":"1","date":"2017-11-15"}}
drop_lat: 28.4512174453855
drop_long: 77.0865114033222
drop_location: 2129, Sushant Lok Road, Block C, Sushant Lok Phase I, Sector 43
Gurugram, Haryana 122003
car_type_id:3
user_id:14
coupon_code :
pickup_lat : 28.4120648543153
pickup_long : 77.0432296022773
pickup_location :68, Plaza Street, Block S, Uppal Southend, Sector 49
Gurugram, Haryana 122018
payment_option_id :2
card_id :
pem_file :1
-------------------------
car by city api -: November 15, 2017, 10:22 am
Response: {"result":1,"msg":"0.00466900949596","details":{"ride_id":"55","user_id":"14","coupon_code":"","pickup_lat":"28.4120648543153","pickup_long":"77.0432296022773","pickup_location":"68, Plaza Street, Block S, Uppal Southend, Sector 49\nGurugram, Haryana 122018","drop_lat":"28.4512174453855","drop_long":"77.0865114033222","drop_location":"2129, Sushant Lok Road, Block C, Sushant Lok Phase I, Sector 43\nGurugram, Haryana 122003","ride_date":"Wednesday, Nov 15","ride_time":"10:22:21","last_time_stamp":"10:22:21 AM","ride_image":"https:maps.googleapis.com\/maps\/api\/staticmap?center=&zoom=12&size=200x200&maptype=roadmap&markers=color:green|label:S|28.4120648543153,77.0432296022773&markers=color:red|label:D|28.4512174453855,77.0865114033222&key=AIzaSyAIFe17P91Mfez3T6cqk7hfDSyvMO812Z4","later_date":"","later_time":"","driver_id":"0","car_type_id":"3","ride_type":"1","pem_file":"1","ride_status":"1","payment_status":"0","reason_id":"0","payment_option_id":"2","card_id":"0","ride_platform":"1","ride_admin_status":"1","date":"2017-11-15"}}
drop_lat: 28.4512174453855
drop_long: 77.0865114033222
drop_location: 2129, Sushant Lok Road, Block C, Sushant Lok Phase I, Sector 43
Gurugram, Haryana 122003
car_type_id:3
user_id:14
coupon_code :
pickup_lat : 28.4120648543153
pickup_long : 77.0432296022773
pickup_location :68, Plaza Street, Block S, Uppal Southend, Sector 49
Gurugram, Haryana 122018
payment_option_id :2
card_id :
pem_file :1
-------------------------
car by city api -: November 15, 2017, 10:23 am
Response: {"result":1,"msg":"9.49307305463E-5","details":{"ride_id":"56","user_id":"14","coupon_code":"","pickup_lat":"28.4121106518697","pickup_long":"77.0432437677654","pickup_location":"68, Plaza Street, Block S, Uppal Southend, Sector 49\nGurugram, Haryana 122018","drop_lat":"28.4276139354879","drop_long":"77.0858120173216","drop_location":"2016, Manohara Marg, Block B1, Sector 57\nGurugram, Haryana 122011","ride_date":"Wednesday, Nov 15","ride_time":"10:23:12","last_time_stamp":"10:23:12 AM","ride_image":"https:maps.googleapis.com\/maps\/api\/staticmap?center=&zoom=12&size=200x200&maptype=roadmap&markers=color:green|label:S|28.4121106518697,77.0432437677654&markers=color:red|label:D|28.4276139354879,77.0858120173216&key=AIzaSyAIFe17P91Mfez3T6cqk7hfDSyvMO812Z4","later_date":"","later_time":"","driver_id":"0","car_type_id":"3","ride_type":"1","pem_file":"1","ride_status":"1","payment_status":"0","reason_id":"0","payment_option_id":"2","card_id":"0","ride_platform":"1","ride_admin_status":"1","date":"2017-11-15"}}
drop_lat: 28.4276139354879
drop_long: 77.0858120173216
drop_location: 2016, Manohara Marg, Block B1, Sector 57
Gurugram, Haryana 122011
car_type_id:3
user_id:14
coupon_code :
pickup_lat : 28.4121106518697
pickup_long : 77.0432437677654
pickup_location :68, Plaza Street, Block S, Uppal Southend, Sector 49
Gurugram, Haryana 122018
payment_option_id :2
card_id :
pem_file :1
-------------------------
Ride Accept api -: November 15, 2017, 10:23 am
Response: {"result":1,"msg":"Booking Accepted!!","details":{"ride_id":"56","user_id":"14","coupon_code":"","pickup_lat":"28.4121106518697","pickup_long":"77.0432437677654","pickup_location":"68, Plaza Street, Block S, Uppal Southend, Sector 49\nGurugram, Haryana 122018","drop_lat":"28.4276139354879","drop_long":"77.0858120173216","drop_location":"2016, Manohara Marg, Block B1, Sector 57\nGurugram, Haryana 122011","ride_date":"Wednesday, Nov 15","ride_time":"10:23:12","last_time_stamp":"10:23:18 AM","ride_image":"https:maps.googleapis.com\/maps\/api\/staticmap?center=&zoom=12&size=200x200&maptype=roadmap&markers=color:green|label:S|28.4121106518697,77.0432437677654&markers=color:red|label:D|28.4276139354879,77.0858120173216&key=AIzaSyAIFe17P91Mfez3T6cqk7hfDSyvMO812Z4","later_date":"","later_time":"","driver_id":"43","car_type_id":"3","ride_type":"1","pem_file":"1","ride_status":"3","payment_status":"0","reason_id":"0","payment_option_id":"2","card_id":"0","ride_platform":"1","ride_admin_status":"1","date":"2017-11-15","user_type":"1","user_name":"fofj .","user_email":"kfk@46.com","user_phone":"+910000011111","user_password":"qwerty","user_image":"","device_id":"AF01E192488E9BD0FC63627AEF73BD716329B2E9302657B823273FD0A3CD33A6","flag":"1","wallet_money":"0","register_date":"Wednesday, Nov 15","referral_code":"","free_rides":"0","referral_code_send":"0","phone_verified":"0","email_verified":"0","password_created":"0","facebook_id":"","facebook_mail":"","facebook_image":"","facebook_firstname":"","facebook_lastname":"","google_id":"","google_name":"","google_mail":"","google_image":"","google_token":"","facebook_token":"","token_created":"0","login_logout":"1","rating":"0","user_delete":"0","unique_number":"","user_signup_type":"1","user_signup_date":"2017-11-15","status":"1","car_type_name":"LUXURY","car_name_arabic":"","car_type_name_french":"LUXURY","car_type_image":"uploads\/car\/editcar_3.png","cartype_image_size":"webstatic\/img\/fleet-image\/lux.png","ride_mode":"1","car_admin_status":"1","company_id":"0","commission":"5","driver_name":"hxxh","driver_email":"djdj@00.com","driver_phone":"3333333331","driver_image":"","driver_password":"qwerty","driver_token":"ZSOqr61Q6wKKe3QO","total_payment_eraned":"95","company_payment":"5","driver_payment":"","car_model_id":"20","car_number":"1234","city_id":"56","license":"","license_expire":"","rc":"","rc_expire":"","insurance":"","insurance_expire":"","other_docs":"","driver_bank_name":"","driver_account_number":"","total_card_payment":"0.00","total_cash_payment":"0.00","amount_transfer_pending":"0.00","current_lat":"28.4121106518697","current_long":"77.0432437677654","current_location":"68, Plaza Street, Block S, Uppal Southend, Sector 49 , Gurugram, Haryana 122018","last_update":"10:23","last_update_date":"Wednesday, Nov 15, 2017","completed_rides":"1","reject_rides":"0","cancelled_rides":"0","busy":"1","online_offline":"1","detail_status":"2","payment_transfer":"0","verification_date":"","verification_status":"1","driver_signup_date":"2017-11-15","driver_status_image":"http:\/\/www.apporiotaxi.com\/superadminpanel\/images\/icons8-Error-80.png","driver_status_message":"your document id in under process, You will be notified very soon","total_document_need":"3","driver_admin_status":"1","verfiy_document":"0","driver_image_first":"uploads\/driver\/driver_first_image_43.jpg","driver_image_second":"uploads\/driver\/driver_image_second43.jpg","car_image_first":"uploads\/driver\/car_image_first43.jpg","car_image_second":"uploads\/driver\/car_image_second43.jpg"}}
ride_id: 56
driver_id: 43
driver_token: ZSOqr61Q6wKKe3QO
-------------------------
ride start to road  Api - : November 15, 2017, 10:23 am
ride_id :56
driver_id: 43
begin_lat: 28.4121106518697
begin_long: 77.0432437677654
driver_token: ZSOqr61Q6wKKe3QO
-------------------------
ride end Api - : November 15, 2017, 10:23 am
ride_id: 56
driver_id: 43
end_lat: 28.4120589469285
end_long: 77.0432668423146
meter_distance: 0.0
lat_long: 
-------------------------
car by city api -: November 15, 2017, 11:27 am
Response: {"result":0,"msg":"No Nearest Driver"}
drop_lat: 
drop_long: 
drop_location: Set your drop point
car_type_id:2
user_id:8
coupon_code :
pickup_lat : 25.325840600115928
pickup_long : 51.526348292827606
pickup_location :Al Reem Tower, Conference Centre, Doha, Qatar
payment_option_id :1
card_id :
pem_file :1
-------------------------
car by city api -: November 15, 2017, 11:27 am
Response: {"result":0,"msg":"No Nearest Driver"}
drop_lat: 
drop_long: 
drop_location: Set your drop point
car_type_id:3
user_id:8
coupon_code :
pickup_lat : 25.32583605432619
pickup_long : 51.52634359896183
pickup_location :Al Reem Tower, Conference Centre, Doha, Qatar
payment_option_id :1
card_id :
pem_file :1
-------------------------
car by city api -: November 15, 2017, 11:28 am
Response: {"result":0,"msg":"No Nearest Driver"}
drop_lat: 
drop_long: 
drop_location: Set your drop point
car_type_id:2
user_id:8
coupon_code :
pickup_lat : 25.325845448958127
pickup_long : 51.52635097503662
pickup_location :Al Reem Tower, Conference Centre, Doha, Qatar
payment_option_id :1
card_id :
pem_file :1
-------------------------
car by city api -: November 15, 2017, 11:42 am
Response: {"result":0,"msg":"No Nearest Driver"}
drop_lat: 
drop_long: 
drop_location: Set your drop point
car_type_id:2
user_id:8
coupon_code :
pickup_lat : 25.325882421373528
pickup_long : 51.52638617902994
pickup_location :Al Reem / Tatweer Tower, Al Wehda St, Doha, Qatar
payment_option_id :1
card_id :
pem_file :1
-------------------------
