car by city api -: November 1, 2017, 5:18 pm
Response: {"result":1,"msg":"4.06390047125","details":{"ride_id":"36","user_id":"8","coupon_code":"","pickup_lat":"25.350622616995363","pickup_long":"51.502353586256504","pickup_location":"Al magta, Doha, Qatar","drop_lat":"","drop_long":"","drop_location":"Set your drop point","ride_date":"Wednesday, Nov 1","ride_time":"17:18:28","last_time_stamp":"05:18:28 PM","ride_image":"https:maps.googleapis.com\/maps\/api\/staticmap?center=&zoom=12&size=200x200&maptype=roadmap&markers=color:green|label:S|25.350622616995363,51.502353586256504&markers=color:red|label:D|,&key=AIzaSyAIFe17P91Mfez3T6cqk7hfDSyvMO812Z4","later_date":"","later_time":"","driver_id":"0","car_type_id":"2","ride_type":"1","pem_file":"1","ride_status":"1","payment_status":"0","reason_id":"0","payment_option_id":"1","card_id":"0","ride_platform":"1","ride_admin_status":"1","date":"2017-11-01"}}
drop_lat: 
drop_long: 
drop_location: Set your drop point
car_type_id:2
user_id:8
coupon_code :
pickup_lat : 25.350622616995363
pickup_long : 51.502353586256504
pickup_location :Al magta, Doha, Qatar
payment_option_id :1
card_id :
pem_file :1
-------------------------
